Take-Home Exercise 2 – ISSS608-VAA
…
We began by identifying all songs performed by Sailor Shift and organizing them chronologically using their release dates. This temporal ordering allowed us to assess changes in external influences throughout her career.

Next, we filtered the full graph to isolate influential edges targeting Sailor’s songs. These were joined with metadata to identify the artists, groups, or labels responsible for the original source of influence. To ensure accuracy, we also validated that the influencing node was a valid performer using song-to-performer relationships.

A1. Convert & Validate Dates

# Check raw release_date format
nodes_tbl %>%
  select(name, release_date) %>%
  filter(!is.na(release_date)) %>%
  distinct(release_date) %>%
  arrange(release_date)

# A tibble: 64 × 1
   release_date
   <chr>       
 1 1975        
 2 1977        
 3 1979        
 4 1980        
 5 1981        
 6 1982        
 7 1983        
 8 1984        
 9 1985        
10 1986        
# ℹ 54 more rows
…
# 3. Retrieve and sort their release dates
sailor_songs_tbl <- nodes_tbl %>%
  filter(id %in% sailor_songs) %>%
  select(id, name, release_date) %>%
  mutate(release_year = as.numeric(release_date)) %>%
  arrange(release_year)

# 4. Print result
print(sailor_songs_tbl)

# A tibble: 26 × 4
      id name                  release_date release_year
   <int> <chr>                 <chr>               <dbl>
 1 17272 Tidal Pop Waves       2028                 2028
 2 17279 High Tide Heartbeat   2028                 2028
 3 17280 Electric Eel Love     2028                 2028
 4 17281 Sun-Drenched Daydream 2028                 2028
 5 17282 Chord of the Deep     2028                 2028
 6 17273 Salty Dreams          2030                 2030
 7 17283 Heart of the Habitat  2030                 2030
 8 17284 Reef Rhythm           2030                 2030
 9 17285 Driftwood Lullaby     2030                 2030
10 17410 Seashell Serenade     2030                 2030
# ℹ 16 more rows
…
collaborations_named <- collaborations %>%
  left_join(nodes_tbl %>% select(id, from_name = name), by = c("from" = "id")) %>%
  left_join(nodes_tbl %>% select(id, to_name = name),   by = c("to" = "id"))

print(collaborations_named)

# A tibble: 21,217 × 5
   song_id  from    to from_name        to_name         
     <int> <int> <int> <chr>            <chr>           
 1       0     1     2 Carlos Duffy     Min Qin         
 2       0     1     3 Carlos Duffy     Xiuying Xie     
 3       0     2     3 Min Qin          Xiuying Xie     
 4       5     7     8 Xiulan Zeng      David Franklin  
 5      15    16    17 Timothy Shea     Philippine Colin
 6      15    16    19 Timothy Shea     Jordan Mullins  
 7      15    16    20 Timothy Shea     Xiuying Meng    
 8      15    17    19 Philippine Colin Jordan Mullins  
 9      15    17    20 Philippine Colin Xiuying Meng    
10      15    19    20 Jordan Mullins   Xiuying Meng    
# ℹ 21,207 more rows
…
# Step 6: Filter to only relevant node types
oceanus_community <- nodes_tbl %>%
  filter(id %in% oceanus_community_ids,
         `Node Type` %in% c("Person", "MusicGroup", "RecordLabel")) %>%
  select(id, name, type = `Node Type`)

# View the final Oceanus Folk community
print(oceanus_community)

# A tibble: 732 × 3
      id name             type  
   <int> <chr>            <chr> 
 1     1 Carlos Duffy     Person
 2     2 Min Qin          Person
 3     3 Xiuying Xie      Person
 4   267 Walter White     Person
 5   274 Li Xie           Person
 6   372 Tao Cui          Person
 7   554 William Lynch    Person
 8   555 Justin Morse     Person
 9   556 Eduardo Gonzalez Person
10   721 Ryan Devan       Person
# ℹ 722 more rows
…
# Step 3: Get node info for these collaborators
oceanus_collaborators <- nodes_tbl %>%
  filter(id %in% collaborator_ids,
         `Node Type` %in% c("Person", "MusicGroup", "RecordLabel")) %>%
  select(id, name, type = `Node Type`)

# View result
print(oceanus_collaborators)

# A tibble: 913 × 3
      id name         type  
   <int> <chr>        <chr> 
 1    20 Xiuying Meng Person
 2    52 Na Guo       Person
 3   151 Gang Zhao    Person
 4   163 Regina Hesse Person
 5   172 Lei Liao     Person
 6   197 Xia Ren      Person
 7   201 Fang Zou     Person
 8   202 Guiying Pan  Person
 9   265 Wei Zhang    Person
10   266 Ping Meng    Person
# ℹ 903 more rows
…
